{
	"id": "aee05044-e19c-427f-8a4b-a82aa2c7beaf",
	"name": "Staging",
	"values": [
		{
			"key": "base_url",
			"value": "https://fastcar.giancristoforo.com.br",
			"enabled": true
		}
	],
	"_postman_variable_scope": "environment",
	"_postman_exported_at": "2021-11-29T21:51:59.352Z",
	"_postman_exported_using": "Postman/9.2.0"
}